<svg width="201" height="130" viewBox="0 0 201 130" fill="none" xmlns="http://www.w3.org/2000/svg">
<circle cx="49.2496" cy="83.9319" r="43.6216" fill="#FFCAE9"/>
<path d="M30.2514 15.2513C31.4467 8.93738 36.787 4.24793 43.2024 3.87857L65.2528 2.60907C73.4217 2.13876 80.2511 8.74422 80.0534 16.9243L79.7561 29.222C79.5667 37.0571 72.9826 43.2106 65.1526 42.8704L41.5062 41.8433C32.9845 41.4731 26.7715 33.6332 28.3581 25.2523L30.2514 15.2513Z" fill="#BFE0A1"/>
<path d="M22.1462 7.22624C22.0926 6.29482 22.7861 5.48818 23.715 5.40154L74.5795 0.657161C75.5562 0.566054 76.4137 1.30331 76.4701 2.28269L78.7126 41.2337C78.7712 42.2501 77.9449 43.0977 76.9273 43.065L25.6951 41.4213C24.7987 41.3926 24.0725 40.6846 24.0209 39.7892L22.1462 7.22624Z" fill="white"/>
<path fill-rule="evenodd" clip-rule="evenodd" d="M74.6254 1.15005L23.761 5.89443C23.0975 5.95632 22.6021 6.53249 22.6404 7.19779L24.5151 39.7608C24.552 40.4003 25.0707 40.906 25.711 40.9266L76.9432 42.5703C77.67 42.5936 78.2602 41.9882 78.2184 41.2622L75.9759 2.31114C75.9356 1.61159 75.3231 1.08497 74.6254 1.15005ZM23.715 5.40154C22.7861 5.48818 22.0926 6.29482 22.1462 7.22624L24.0209 39.7892C24.0725 40.6846 24.7987 41.3926 25.6951 41.4213L76.9273 43.065C77.9449 43.0977 78.7712 42.2501 78.7126 41.2337L76.4701 2.28269C76.4137 1.30331 75.5562 0.566054 74.5795 0.657161L23.715 5.40154Z" fill="#8B8B8B"/>
<path d="M24.9953 11.2558C24.9694 10.8055 25.3063 10.4161 25.7557 10.377L71.9326 6.36312C72.7354 6.29334 73.4372 6.90056 73.4835 7.70505V7.70505C73.5288 8.49126 72.9296 9.166 72.1436 9.21402L25.8788 12.0403C25.4179 12.0685 25.0219 11.7168 24.9953 11.2558V11.2558Z" fill="#80C343"/>
<path d="M26.2413 17.5938C26.2347 17.3496 26.4262 17.1458 26.6703 17.1372L63.4734 15.8339C63.8211 15.8216 64.1121 16.0951 64.1214 16.4429V16.4429C64.1307 16.7888 63.8575 17.0767 63.5116 17.0855L26.6974 18.0267C26.452 18.0329 26.2478 17.8392 26.2413 17.5938V17.5938Z" fill="#80C343"/>
<path d="M26.4271 24.1099C26.4242 23.8656 26.6187 23.6647 26.8629 23.6597L63.4677 22.9093C63.8156 22.9021 64.1025 23.1799 64.1066 23.5278V23.5278C64.1107 23.8739 63.8333 24.1576 63.4872 24.1613L26.8767 24.5495C26.6312 24.5521 26.43 24.3554 26.4271 24.1099V24.1099Z" fill="#80C343"/>
<path d="M27.0222 31.5451C27.0195 31.3009 27.2141 31.1002 27.4583 31.0953L63.7563 30.3772C64.1042 30.3704 64.3909 30.6484 64.3947 30.9963V30.9963C64.3986 31.3423 64.1209 31.6258 63.7749 31.6292L27.4715 31.9852C27.2259 31.9876 27.0249 31.7907 27.0222 31.5451V31.5451Z" fill="#80C343"/>
<circle cx="65.157" cy="4.37848" r="0.511245" transform="rotate(-3.29506 65.157 4.37848)" fill="#C4C4C4"/>
<circle cx="67.591" cy="4.18119" r="0.568051" transform="rotate(-3.29506 67.591 4.18119)" fill="#C4C4C4"/>
<circle cx="70.1392" cy="3.9778" r="0.624856" transform="rotate(-3.29506 70.1392 3.9778)" fill="#C4C4C4"/>
<path d="M186.558 120.909C186.558 120.446 186.188 120.071 185.732 120.071H0.826031C0.369923 120.071 0.00019034 120.446 0.00019034 120.909V125.436C0.00019034 125.899 0.369923 126.275 0.826031 126.275H185.732C186.188 126.275 186.558 125.899 186.558 125.436V120.909Z" fill="#282828"/>
<path d="M200.255 52.5538C200.487 51.4988 199.683 50.4995 198.6 50.4995H91.3291C90.5958 50.4995 89.9456 50.9705 89.7184 51.6664L68.1055 117.856C67.7487 118.949 68.5647 120.071 69.7162 120.071H183.993C184.788 120.071 185.476 119.519 185.647 118.744L200.255 52.5538Z" fill="#626262"/>
<path d="M195.157 56.1023C195.392 55.0461 194.587 54.0447 193.504 54.0447H94.8379C94.102 54.0447 93.4504 54.5194 93.2254 55.2194L74.3062 114.095C73.9553 115.187 74.7707 116.304 75.9187 116.304H180.452C181.246 116.304 181.934 115.753 182.105 114.978L195.157 56.1023Z" fill="white"/>
<path d="M96.8242 104.45C96.8242 104.144 97.0514 103.896 97.3317 103.896H163.894C164.174 103.896 164.401 104.144 164.401 104.45C164.401 104.756 164.174 105.004 163.894 105.004H97.3317C97.0514 105.004 96.8242 104.756 96.8242 104.45Z" fill="#474747"/>
<path d="M93.9434 110.433C93.9434 110.127 94.172 109.879 94.4542 109.879H161.453C161.735 109.879 161.964 110.127 161.964 110.433C161.964 110.739 161.735 110.987 161.453 110.987H94.4542C94.172 110.987 93.9434 110.739 93.9434 110.433Z" fill="#474747"/>
<path d="M186.558 120.909C186.558 120.446 186.177 120.071 185.708 120.071H120.051C119.582 120.071 119.202 120.446 119.202 120.909V125.436C119.202 125.899 119.582 126.275 120.051 126.275H185.708C186.177 126.275 186.558 125.899 186.558 125.436V120.909Z" fill="#010101"/>
<path d="M105.802 56.9303C106.037 56.1384 106.762 55.5955 107.586 55.5955H177.605C178.782 55.5955 179.664 56.678 179.429 57.8354L171.387 97.5264C171.21 98.3967 170.448 99.0221 169.562 99.0221H95.8064C94.5608 99.0221 93.6666 97.8189 94.022 96.6213L105.802 56.9303Z" fill="#BFE0A1"/>
<path d="M125.953 27.3119L130.813 18.3458C123.91 -1.04251 105.691 11.4105 103.965 16.9664L105.354 22.7139L125.953 27.3119Z" fill="#191919"/>
<path d="M107.12 28.9588C105.354 28.9588 103.922 26.8638 103.922 24.2795C103.922 21.6953 105.354 19.6003 107.12 19.6003C108.886 19.6003 110.318 21.6953 110.318 24.2795C110.318 26.8638 108.886 28.9588 107.12 28.9588Z" fill="#E8E8E8"/>
<path d="M137.694 71.2949L95.8699 71.9662C98.1617 85.8956 98.0543 87.6764 98.3526 98.8181H137.694V71.2949Z" fill="#6C9645"/>
<path d="M136.794 85.4601C130.687 104.656 103.994 101.89 98.9172 82.6934C93.8407 63.4974 84.8287 47.8798 101.16 42.5771C116.239 37.0438 118.318 37.2661 134.599 42.5771C152.269 48.3409 144.685 65.8621 136.794 85.4601Z" fill="#6C9645"/>
<path d="M119.711 52.8497C119.704 52.752 119.622 52.6763 119.525 52.6763H115.534C115.435 52.6763 115.354 52.7524 115.348 52.8503L113.009 87.8839C113.006 87.9403 113.028 87.9954 113.069 88.0337L117.344 91.9594C117.414 92.0236 117.521 92.0251 117.593 91.9628L122.108 88.0342C122.152 87.9958 122.176 87.9388 122.171 87.8804L119.711 52.8497Z" fill="#636464"/>
<path d="M122.254 35.8503H113.92V42.0086L118.087 46.4562L122.254 42.0086V35.8503Z" fill="#F8B9A8"/>
<path d="M122.255 40.2979C122.255 42.2936 113.921 41.7614 113.921 40.2979V43.3153C113.921 45.6168 115.786 47.4825 118.088 47.4825C120.389 47.4825 122.255 45.6168 122.255 43.3153V40.2979Z" fill="#F8B9A8"/>
<g style="mix-blend-mode:multiply" opacity="0.3">
<path d="M122.254 35.5083H113.92V38.4535C115.616 43.5989 120.025 43.9823 122.254 38.4535V35.5083Z" fill="#F8B9A8"/>
</g>
<path d="M136.323 98.3215C136.323 98.5789 136.532 98.7876 136.789 98.7876L143.066 98.7876L149.721 98.7876C149.999 98.7876 150.215 98.5467 150.185 98.2709L145.304 53.5557C145.299 53.5141 145.289 53.4731 145.273 53.4343C143.687 49.5125 139.587 47.0518 136.373 53.4141C136.341 53.4783 136.323 53.552 136.323 53.6239L136.323 98.3215Z" fill="#6C9645"/>
<path d="M106.908 23.789C105.954 30.6079 111.381 37.0463 117.053 38.4203C117.32 38.4849 117.598 38.4781 117.862 38.4023C123.183 36.8746 128.964 31.1826 128.011 23.789C128.011 16.2975 125.862 8.82812 117.46 8.82812C109.057 8.82812 106.908 16.2975 106.908 23.789Z" fill="#F8B9A8"/>
<path d="M119.48 22.8594C119.48 23.6046 119.873 24.2086 120.357 24.2086C120.842 24.2086 121.234 23.6046 121.234 22.8594C121.234 22.1143 120.842 21.5103 120.357 21.5103C119.873 21.5103 119.48 22.1143 119.48 22.8594Z" fill="#191919"/>
<path d="M109.901 22.8594C109.901 23.6046 110.294 24.2086 110.778 24.2086C111.263 24.2086 111.655 23.6046 111.655 22.8594C111.655 22.1143 111.263 21.5103 110.778 21.5103C110.294 21.5103 109.901 22.1143 109.901 22.8594Z" fill="#191919"/>
<path fill-rule="evenodd" clip-rule="evenodd" d="M116.138 24.3958C116.258 24.4213 116.335 24.5393 116.309 24.6594L115.707 27.494H116.916C117.039 27.494 117.139 27.5935 117.139 27.7163C117.139 27.839 117.039 27.9385 116.916 27.9385H115.432C115.365 27.9385 115.302 27.9083 115.259 27.8562C115.217 27.804 115.201 27.7357 115.215 27.6701L115.874 24.567C115.9 24.4469 116.018 24.3702 116.138 24.3958Z" fill="#CF836F"/>
<path d="M113.004 18.4894C113.004 18.2064 112.804 17.962 112.526 17.9115C111.227 17.676 110.58 17.6731 109.427 17.9028C109.152 17.9576 108.956 18.2022 108.956 18.4829C108.956 18.8137 109.225 19.0818 109.555 19.0818H112.411C112.739 19.0818 113.004 18.8166 113.004 18.4894Z" fill="#CF836E"/>
<path d="M122.179 18.4836C122.179 18.2027 121.983 17.9582 121.707 17.9033C120.58 17.6788 120 17.6758 118.998 17.8943C118.726 17.9536 118.536 18.1981 118.536 18.4765C118.536 18.8108 118.807 19.0818 119.141 19.0818H121.581C121.911 19.0818 122.179 18.814 122.179 18.4836Z" fill="#CF836E"/>
<path d="M113.543 30.4148H119.21C119.21 31.489 117.51 32.42 116.377 32.5633C115.243 32.7065 113.543 31.31 113.543 30.4148Z" fill="#FDF9EC"/>
<path d="M117.956 55.4916C117.885 55.618 117.703 55.618 117.631 55.4916L112.985 47.2542C112.915 47.1299 113.004 46.9761 113.147 46.9761H122.44C122.583 46.9761 122.673 47.1299 122.603 47.2542L117.956 55.4916Z" fill="#636464"/>
<path d="M114.631 42.6634C114.264 41.0144 113.943 39.2298 113.711 37.6215C113.705 37.5805 113.672 37.5482 113.631 37.5424C112.069 37.3213 111.601 37.3335 110.694 38.2369C110.686 38.245 110.679 38.254 110.675 38.2645C110.363 38.9782 109.8 41.2004 109.984 44.522C110.165 47.7818 112.567 50.7181 113.836 51.8692C113.884 51.9124 113.959 51.8936 113.983 51.834L116.241 46.1871C116.251 46.1624 116.25 46.1348 116.238 46.1112C115.842 45.3407 114.996 44.3096 114.631 42.6634Z" fill="white"/>
<path d="M121.634 43.128C122 41.479 122.322 39.6944 122.553 38.0861C122.559 38.0451 122.592 38.0128 122.633 38.007C124.196 37.7859 124.663 37.7981 125.571 38.7015C125.579 38.7096 125.586 38.7186 125.59 38.7291C125.901 39.4428 126.465 41.665 126.28 44.9866C126.099 48.2464 123.698 51.1827 122.429 52.3338C122.381 52.377 122.306 52.3582 122.282 52.2986L120.023 46.6517C120.013 46.627 120.014 46.5994 120.027 46.5758C120.422 45.8053 121.268 44.7742 121.634 43.128Z" fill="white"/>
<path d="M117.29 6.00178C120.44 5.8362 122.802 8.69242 123.393 9.93425C122.146 11.728 118.353 15.4397 113.157 15.9364C106.661 16.5574 101.346 10.1412 103.511 10.1412C105.677 10.1412 113.353 6.20875 117.29 6.00178Z" fill="#191919"/>
<path d="M94.8144 46.762C94.7728 46.6287 94.5984 46.5931 94.4988 46.691C74.8681 65.9927 72.9073 61.6445 62.6715 47.6792C62.6403 47.6367 62.5894 47.6077 62.537 47.6023C56.9903 47.0391 56.8851 48.1951 55.9461 52.8735C55.9382 52.9131 55.9435 52.9565 55.9609 52.9929C66.6483 75.3505 83.0378 77.6345 98.1044 57.5776C98.1404 57.5297 98.1522 57.4659 98.1344 57.4088L94.8144 46.762Z" fill="#6C9645"/>
<path d="M60.5997 42.0704C59.0485 39.4207 55.8651 38.4001 53.4894 39.7909C51.1138 41.1817 50.4455 44.4572 51.9968 47.107C53.5481 49.7567 56.7315 50.7773 59.1071 49.3865C61.4828 47.9957 62.151 44.7202 60.5997 42.0704Z" fill="#F8B9A8"/>
<path d="M63.9517 48.5554C64.0037 48.6443 63.9739 48.7585 63.885 48.8105L55.9348 53.465C55.8459 53.517 55.7317 53.4871 55.6796 53.3983L53.3498 49.4186C53.2977 49.3297 53.3276 49.2155 53.4165 49.1635L61.3667 44.509C61.4556 44.457 61.5698 44.4869 61.6218 44.5758L63.9517 48.5554Z" fill="white"/>
<path d="M129.219 23.0406C129.359 19.6301 126.744 13.8649 126.352 13.4008C122.056 8.31717 118.118 6.8852 112.82 7.09998C111.459 7.5296 110.436 7.77982 110.171 7.9592C108.917 7.9592 117.474 8.8363 118.047 9.0332C122.629 10.6084 127.366 15.9054 127.167 21.5316L129.219 23.0406Z" fill="#E8E8E8"/>
<path d="M127.061 27.9709C125.815 30.2166 123.808 31.9385 121.407 32.8227C121.096 32.9232 120.781 33.0072 120.462 33.0744L120.545 32.2321C121.556 31.8279 122.514 31.3018 123.398 30.6654C124.628 29.7667 125.702 28.6692 126.576 27.4176L127.061 27.9709Z" fill="#E8E8E8"/>
<path d="M121.222 31.7776L119.324 32.2394C119.185 32.273 119.066 32.3606 118.991 32.4828C118.917 32.605 118.894 32.7518 118.927 32.8909L118.979 33.1055C119.012 33.2446 119.099 33.3646 119.221 33.4392C119.342 33.5137 119.488 33.5367 119.627 33.503L121.525 33.0412L121.222 31.7776Z" fill="#D3D3D3"/>
<path d="M127.059 29.3225C125.204 29.0226 124.056 26.579 124.495 23.8647C124.933 21.1504 126.793 19.1931 128.648 19.4931C130.504 19.793 131.652 22.2365 131.213 24.9508C130.775 27.6652 128.915 29.6224 127.059 29.3225Z" fill="#E8E8E8"/>
<path d="M127.448 26.9199C126.528 26.7711 125.954 25.5872 126.166 24.2755C126.378 22.9639 127.296 22.0211 128.216 22.1699C129.136 22.3186 129.71 23.5025 129.498 24.8142C129.286 26.1259 128.368 27.0686 127.448 26.9199Z" fill="#D3D3D3"/>
<path d="M179.496 76.9178L179.987 77.2426C180.448 77.5482 181.07 77.4217 181.375 76.9601L183.343 73.9876C183.649 73.526 183.522 72.9042 183.061 72.5987L182.57 72.2738C182.108 71.9683 181.486 72.0948 181.181 72.5563L179.213 75.5288C178.908 75.9904 179.034 76.6123 179.496 76.9178Z" fill="#F2A74E"/>
<path d="M172.676 64.0802C174.463 61.3808 176.935 59.3485 177.901 59.9882C178.018 60.0656 178.107 60.1788 178.171 60.3224C178.176 60.33 178.18 60.3378 178.185 60.3462C178.846 61.6636 184.835 67.9744 186.228 69.3212C186.388 69.475 186.497 69.6727 186.544 69.8892C186.67 70.4809 186.792 71.7172 186.011 72.8966C185.225 74.0846 184 74.45 183.395 74.5607C183.18 74.6003 182.958 74.5761 182.757 74.4911C180.988 73.7429 172.851 70.7099 171.386 70.6159C171.342 70.6131 171.299 70.6074 171.258 70.5996C171.143 70.5848 171.04 70.5484 170.95 70.4888C170.902 70.4568 170.859 70.4189 170.82 70.3758C170.738 70.2942 170.675 70.1956 170.635 70.0869C170.647 70.1058 170.659 70.1238 170.674 70.1406C170.224 69.0877 171.112 66.4423 172.676 64.0802V64.0802Z" fill="#FFB636"/>
<path d="M173.185 64.4172C171.625 66.7738 170.771 69.411 171.535 69.9171C172.3 70.4232 174.394 68.6065 175.954 66.2499C177.514 63.8933 178.368 61.256 177.604 60.75C176.839 60.2439 174.745 62.0605 173.185 64.4172V64.4172Z" fill="#CC883E"/>
<path d="M184.234 70.6563C184.334 70.6564 184.432 70.6365 184.524 70.5977C184.616 70.5589 184.699 70.502 184.768 70.4304C185.054 70.1356 185.046 69.6649 184.752 69.3792L183.016 67.6962C182.721 67.4104 182.25 67.4177 181.964 67.7125C181.679 68.0073 181.686 68.4779 181.981 68.7637L183.717 70.4467C183.855 70.5813 184.041 70.6565 184.234 70.6563Z" fill="#FFD469"/>
<path d="M171.089 62.6903L168.11 59.7399C167.984 59.6146 167.774 59.6352 167.675 59.7827L166.988 60.8C166.893 60.9402 166.941 61.1315 167.091 61.2103L170.757 63.1434C170.817 63.175 170.886 63.184 170.953 63.1687C171.019 63.1533 171.078 63.1147 171.118 63.0599C171.158 63.0051 171.177 62.9376 171.172 62.8698C171.167 62.8019 171.137 62.7383 171.089 62.6903V62.6903ZM170.596 65.2241C170.585 65.2786 170.554 65.3272 170.509 65.3603C170.465 65.3935 170.409 65.409 170.354 65.4038L167.07 65.0973C167.039 65.0944 167.008 65.0848 166.98 65.0692C166.953 65.0536 166.929 65.0324 166.91 65.0068C166.891 64.9813 166.877 64.9521 166.871 64.9211C166.864 64.8901 166.864 64.858 166.87 64.8269L167.066 63.8699C167.094 63.7311 167.242 63.6523 167.373 63.706L170.46 64.9696C170.509 64.9895 170.549 65.0259 170.574 65.0723C170.599 65.1188 170.607 65.1725 170.596 65.2241V65.2241ZM173.048 61.7398C173.001 61.7705 172.945 61.7829 172.89 61.7747C172.835 61.7665 172.785 61.7383 172.749 61.6954L170.644 59.1569C170.624 59.1324 170.609 59.104 170.601 59.0734C170.592 59.0428 170.59 59.0108 170.595 58.9794C170.599 58.948 170.611 58.9179 170.628 58.8911C170.645 58.8643 170.667 58.8415 170.694 58.824L171.509 58.2858C171.627 58.2077 171.787 58.2564 171.842 58.387L173.132 61.4638C173.152 61.5123 173.155 61.5665 173.14 61.6169C173.124 61.6673 173.092 61.7108 173.048 61.7398V61.7398Z" fill="#59CAFC"/>
<path d="M35.7867 75.8205C34.2069 74.2921 33.453 70.8169 33.2734 69.2703C32.8247 71.6356 31.8912 76.6211 31.7475 77.64C31.568 78.9137 29.9121 79.329 29.4633 80.6937C29.0145 82.0583 30.9839 90.4072 33.6767 92.7725C36.3695 95.1379 41.4484 93.3343 41.1677 89.4953C41.113 88.7477 38.4795 87.013 38.3 85.3754C38.1205 83.7378 38.0307 82.9166 38.3 80.9152C38.5693 78.9137 37.7614 77.731 35.7867 75.8205Z" fill="#191919"/>
<path d="M19.8819 75.8121C21.4642 74.2857 22.2194 70.8149 22.3992 69.2703C22.8487 71.6326 23.7836 76.6117 23.9275 77.6293C24.1073 78.9013 25.7658 79.3161 26.2153 80.679C26.6648 82.0419 24.6923 90.3801 21.9953 92.7424C19.2982 95.1047 14.2114 93.3035 14.4925 89.4694C14.5473 88.7227 17.1849 86.9902 17.3647 85.3547C17.5445 83.7193 17.6344 82.8991 17.3647 80.9002C17.095 78.9013 17.9041 77.7202 19.8819 75.8121Z" fill="#191919"/>
<rect width="18.3003" height="8.68803" transform="matrix(-1 0 0 1 36.2256 111.145)" fill="#322F2F"/>
<path d="M39.6924 90.1134C34.4248 79.8031 18.8282 82.5387 16.9925 88.8108C15.1569 95.0829 15.4925 99.2655 15.6954 104.07C15.8882 108.635 13.6894 111.699 20.8554 111.699H33.6614C40.4384 111.699 40.476 109.081 40.5263 103.791C40.5603 100.213 41.1186 95.0096 39.6924 90.1134Z" fill="#80C343"/>
<path d="M36.9067 126.014C38.9505 124.618 38.5655 120.773 36.576 119.91C34.5864 119.047 32.1745 118.538 32.2855 120.588L32.56 125.654C32.6772 127.818 34.6755 127.334 36.9067 126.014Z" fill="#474747"/>
<mask id="mask0" mask-type="alpha" maskUnits="userSpaceOnUse" x="32" y="118" width="7" height="10">
<path d="M36.9045 126C38.948 124.611 38.5641 120.785 36.5755 119.927C34.5868 119.069 32.1757 118.564 32.2862 120.603L32.5593 125.644C32.6759 127.796 34.6737 127.314 36.9045 126Z" fill="#DF514F"/>
</mask>
<g mask="url(#mask0)">
<rect width="9.57256" height="1.62247" transform="matrix(-0.0540986 -0.998536 -0.998536 0.0540986 34.3076 127.916)" fill="#E5E5E5"/>
</g>
<path d="M12.285 108.55C12.7585 108.601 13.216 108.76 13.6331 108.989L32.1542 119.192C33.5406 119.956 34.2044 121.585 33.7466 123.1V123.1C33.2446 124.762 31.5582 125.766 29.8585 125.415L8.75927 121.064C8.37832 120.986 8.00126 120.849 7.66391 120.656C-2.17732 115.007 2.7285 107.526 12.285 108.55Z" fill="#322F2F"/>
<path d="M41.8156 108.55C41.3421 108.601 40.8846 108.76 40.4675 108.989L21.9463 119.192C20.5599 119.956 19.8962 121.585 20.354 123.1V123.1C20.856 124.762 22.5424 125.766 24.2421 125.415L45.3413 121.064C45.7223 120.986 46.0993 120.849 46.4367 120.656C56.2779 115.007 51.3721 107.526 41.8156 108.55Z" fill="#322F2F"/>
<path d="M19.6975 94.9595H33.9998C34.7367 94.9595 35.334 95.5577 35.334 96.2957V104.979C35.334 105.717 34.7367 106.316 33.9998 106.316H19.6975C18.9607 106.316 18.3633 105.717 18.3633 104.979V96.2957C18.3633 95.5577 18.9607 94.9595 19.6975 94.9595Z" fill="#3A3A3A"/>
<g style="mix-blend-mode:multiply" opacity="0.5">
<path d="M32.2279 99.645L33.9998 94.9595C34.7367 94.9595 35.334 95.5577 35.334 96.2957V104.979C35.334 105.717 34.7367 106.316 33.9998 106.316H19.6975C18.9607 106.316 18.3633 105.717 18.3633 104.979C22.5701 104.979 27.3318 105.752 32.2279 99.645Z" fill="#3A3A3A"/>
</g>
<path fill-rule="evenodd" clip-rule="evenodd" d="M27.4763 62.6712C27.1534 62.3873 26.5073 62.5718 26.2357 62.8396C25.9017 63.1689 25.4636 64.7419 25.5388 65.525L27.6934 64.792L29.2358 65.3376C29.4148 64.6636 28.9648 63.1723 28.5627 62.806C28.3041 62.5705 27.7565 62.3912 27.4763 62.6712Z" fill="#191919"/>
<path d="M34.7066 72.1731C34.7066 76.6721 31.624 74.0458 27.5904 74.0458C23.5568 74.0458 20.0996 76.6721 20.0996 72.1731C20.0996 67.674 23.3695 64.0269 27.4031 64.0269C31.4367 64.0269 34.7066 67.674 34.7066 72.1731Z" fill="#2B2B2B"/>
<path d="M25.5303 80.8811H29.6502V84.1232C28.1106 85.0553 27.2123 85.0326 25.5303 84.1232V80.8811Z" fill="#F8B9A8"/>
<path d="M25.5303 82.4729V80.6938L29.6502 81.0684C29.6502 81.5366 28.4891 82.3231 27.9648 82.4729C27.4404 82.6227 26.0921 82.6602 25.5303 82.4729Z" fill="#DD9887"/>
<path d="M21.226 73.6668C21.2229 73.876 21.2391 74.086 21.2743 74.2922C21.9416 78.2017 23.5376 80.5711 26.5501 81.5616C27.1626 81.763 27.8273 81.7458 28.4342 81.5279C31.2659 80.5112 32.945 78.4782 33.7115 74.3174C33.7525 74.0948 33.7716 73.8673 33.768 73.641C33.7012 69.4299 32.3619 65.3379 27.4972 65.3379C22.6226 65.3379 21.2877 69.4467 21.226 73.6668Z" fill="#F8B9A8"/>
<ellipse rx="0.526461" ry="0.842337" transform="matrix(-1 0 0 1 30.2411 74.003)" fill="#636464"/>
<ellipse rx="0.526461" ry="0.842337" transform="matrix(-1 0 0 1 24.7655 74.003)" fill="#636464"/>
<ellipse rx="0.655442" ry="0.468173" transform="matrix(-1 0 0 1 23.9383 76.2931)" fill="#FA9797"/>
<ellipse rx="0.749077" ry="0.468173" transform="matrix(-1 0 0 1 31.1484 76.2931)" fill="#FA9797"/>
<path fill-rule="evenodd" clip-rule="evenodd" d="M27.3789 75.2655C27.4466 75.2787 27.4908 75.3442 27.4776 75.4119L27.1181 77.2607H27.8406C27.9095 77.2607 27.9654 77.3166 27.9654 77.3856C27.9654 77.4545 27.9095 77.5104 27.8406 77.5104H26.9666C26.9294 77.5104 26.894 77.4937 26.8703 77.465C26.8466 77.4362 26.837 77.3983 26.8441 77.3617L27.2325 75.3642C27.2457 75.2965 27.3112 75.2523 27.3789 75.2655Z" fill="#CF836F"/>
<path d="M25.8184 71.9523C25.8184 71.8418 25.7482 71.743 25.6437 71.7069C24.7557 71.4006 24.5466 71.3988 23.7741 71.7015C23.6731 71.741 23.6072 71.8389 23.6072 71.9473V71.9473C23.6072 72.094 23.7261 72.2129 23.8728 72.2129H25.5578C25.7017 72.2129 25.8184 72.0962 25.8184 71.9523V71.9523Z" fill="#CF836E"/>
<path d="M31.2939 71.9523C31.2939 71.8418 31.2238 71.743 31.1193 71.7069C30.2313 71.4006 30.0222 71.3988 29.2496 71.7015C29.1487 71.741 29.0828 71.8389 29.0828 71.9473V71.9473C29.0828 72.094 29.2017 72.2129 29.3484 72.2129H31.0334C31.1773 72.2129 31.2939 72.0962 31.2939 71.9523V71.9523Z" fill="#CF836E"/>
<path d="M25.6084 78.9514H29.083C29.083 79.6326 28.0406 80.2229 27.3457 80.3137C26.6508 80.4046 25.6084 79.5191 25.6084 78.9514Z" fill="#FDF9EC"/>
<ellipse rx="0.936346" ry="1.77906" transform="matrix(-0.983443 0.18122 0.18122 0.983443 20.4738 74.0457)" fill="#F8B9A8"/>
<ellipse cx="34.4258" cy="74.0457" rx="0.916769" ry="1.74186" transform="rotate(10.4408 34.4258 74.0457)" fill="#F8B9A8"/>
<g style="mix-blend-mode:multiply" opacity="0.3">
<ellipse rx="0.374538" ry="0.842711" transform="matrix(-0.989438 0.144954 0.144954 0.989438 20.4742 74.0458)" fill="#F8B9A8"/>
</g>
<g style="mix-blend-mode:multiply" opacity="0.3">
<ellipse cx="34.4258" cy="74.0456" rx="0.366707" ry="0.825092" transform="rotate(8.33462 34.4258 74.0456)" fill="#F8B9A8"/>
</g>
<path d="M21.0357 73.203C20.8859 72.6786 20.7236 72.2978 20.6611 72.173C21.5038 67.3976 22.5526 67.0793 23.002 66.5549C23.5638 65.8995 25.5301 64.495 29.3691 65.0568C32.4404 65.5062 34.4254 70.5812 34.1445 72.5475C33.9885 72.6412 33.77 73.0157 33.77 73.0157C33.77 73.0157 33.5515 74.6387 33.4891 74.8884C33.1758 74.104 32.6464 71.643 32.6464 70.7685C32.6464 69.1767 30.5864 67.5974 27.4028 67.4913C24.5938 67.3976 22.1593 69.2703 22.1593 70.5812C22.1593 71.8921 21.7295 73.5857 21.4102 74.7011C21.4102 74.4202 21.1855 73.7273 21.0357 73.203Z" fill="#2B2B2B"/>
<path d="M33.1322 102.646C34.2408 101.891 34.4193 100.219 33.5308 98.9108C32.6423 97.6023 31.0233 97.1531 29.9146 97.9073C28.806 98.6615 28.6275 100.334 29.516 101.642C30.4045 102.95 32.0235 103.4 33.1322 102.646Z" fill="#F8B9A8"/>
<path d="M20.3904 105.042C20.983 106.245 22.6141 106.655 24.0334 105.957C25.4527 105.259 26.1228 103.718 25.5301 102.515C24.9375 101.312 23.3065 100.903 21.8872 101.601C20.4679 102.299 19.7977 103.84 20.3904 105.042Z" fill="#F8B9A8"/>
<path d="M17.336 120.291C15.2647 121.632 15.5724 125.443 17.5442 126.335C19.5161 127.226 21.9173 127.776 21.8474 125.746L21.6745 120.73C21.6008 118.588 19.5932 119.028 17.336 120.291Z" fill="#474747"/>
<mask id="mask1" mask-type="alpha" maskUnits="userSpaceOnUse" x="15" y="119" width="7" height="9">
<path d="M17.3377 120.284C15.2672 121.632 15.5757 125.465 17.5471 126.362C19.5185 127.259 21.9192 127.812 21.8489 125.771L21.675 120.726C21.6008 118.572 19.5939 119.014 17.3377 120.284Z" fill="#DF514F"/>
</mask>
<g mask="url(#mask1)">
<rect width="9.57256" height="1.62247" transform="matrix(0.0344302 0.999407 0.999407 -0.0344302 19.9717 118.42)" fill="#E5E5E5"/>
</g>
<path d="M12.0098 101.255L17.546 101.163L16.9083 108.742L14.5344 109.505C14.3924 109.55 14.2448 109.578 14.0957 109.578C13.282 109.582 12.4619 109.426 12.2296 108.693C12.2013 108.604 12.1934 108.51 12.1911 108.416L12.0098 101.255Z" fill="#F8B9A8"/>
<path d="M23.6492 105.969C20.7716 107.379 19.0826 108.066 15.8917 109.059L16.6248 104.86L21.3385 104.305L23.6492 105.969Z" fill="#F8B9A8"/>
<path d="M43.8045 101.441L38.2593 101.441L38.5366 108.372L40.7493 109.794C40.9949 109.952 41.2788 110.048 41.5701 110.027C42.4248 109.968 43.4927 109.66 43.7599 108.972C43.7984 108.873 43.8046 108.765 43.8046 108.658L43.8045 101.441Z" fill="#F8B9A8"/>
<path d="M31.1426 102.642C34.0225 104.067 37.4689 108.478 40.6624 109.481L40.2927 104.952L34.0078 101.163L31.1426 102.642Z" fill="#F8B9A8"/>
<path d="M12.3918 92.9257C13.2328 91.2224 15.3819 87.8159 19.7737 85.4502L18.1852 101.347H11.2705C11.2705 99.3603 11.7706 94.1839 12.3918 92.9257Z" fill="#80C343"/>
<path d="M43.448 93.3065C42.6253 91.6429 40.5229 88.3155 36.2266 86.0049L37.7806 101.532H44.5449C44.5449 99.5915 44.0557 94.5355 43.448 93.3065Z" fill="#80C343"/>
</svg>
