<svg width="671" height="140" viewBox="0 0 671 140" fill="none" xmlns="http://www.w3.org/2000/svg">
<path d="M1 139C1 139 22.1811 66.606 93.6362 76.8687C165.091 87.1313 177.589 97.394 226.444 87.1313C275.299 76.8687 319 43 319 43" stroke="white" stroke-dasharray="5 3"/>
<path d="M419 19.4323C419 19.4323 484.484 -14.3013 516.41 13.3768C548.337 41.0548 563.219 102.902 671 102.902" stroke="white" stroke-dasharray="5 3"/>
</svg>
