<svg width="121" height="138" viewBox="0 0 121 138" fill="none" xmlns="http://www.w3.org/2000/svg">
<path d="M64.6283 137.206C95.5662 137.206 120.646 112.265 120.646 81.4991C120.646 50.733 95.5662 25.7922 64.6283 25.7922C33.6904 25.7922 8.61024 50.733 8.61024 81.4991C8.61024 112.265 33.6904 137.206 64.6283 137.206Z" fill="#EEF5FF"/>
<path d="M59.8149 132.89C90.7528 132.89 115.833 107.95 115.833 77.1836C115.833 46.4176 90.7528 21.4768 59.8149 21.4768C28.877 21.4768 3.79684 46.4176 3.79684 77.1836C3.79684 107.95 28.877 132.89 59.8149 132.89Z" fill="#5289DD"/>
<path d="M59.8149 128.886C88.5299 128.886 111.808 105.738 111.808 77.1838C111.808 48.6292 88.5299 25.4812 59.8149 25.4812C31.1 25.4812 7.82188 48.6292 7.82188 77.1838C7.82188 105.738 31.1 128.886 59.8149 128.886Z" fill="white"/>
<path fill-rule="evenodd" clip-rule="evenodd" d="M18.7972 88.2214L26.1211 92.9311L25.2497 94.2382L17.9258 89.5285L18.7972 88.2214Z" fill="#89B2EF"/>
<path fill-rule="evenodd" clip-rule="evenodd" d="M41.5572 82.6819L48.3416 84.8604L47.8437 86.3542L41.08 84.1757L41.5572 82.6819Z" fill="#89B2EF"/>
<path fill-rule="evenodd" clip-rule="evenodd" d="M59.4415 76.4988L60.5411 77.6191L52.6363 85.2542L51.5367 84.1338L59.4415 76.4988Z" fill="#89B2EF"/>
<path fill-rule="evenodd" clip-rule="evenodd" d="M36.8268 83.9265L37.9886 84.9846L29.8971 93.6571L28.7353 92.5989L36.8268 83.9265Z" fill="#89B2EF"/>
<path fill-rule="evenodd" clip-rule="evenodd" d="M13.8179 97.9104H18.5483C19.482 97.9104 20.2289 98.6573 20.2496 99.5702L20.5401 118.845C20.5608 119.82 19.7309 120.608 18.7558 120.567L13.8179 120.318V97.9104Z" fill="#D0625C"/>
<path fill-rule="evenodd" clip-rule="evenodd" d="M36.4948 93.9683H41.2252C42.1589 93.9683 42.9058 94.6944 42.9265 95.5866L43.2377 119.218C43.2585 120.172 42.4286 120.94 41.4535 120.878L36.5363 120.587V93.9683H36.4948Z" fill="#D0625C"/>
<path fill-rule="evenodd" clip-rule="evenodd" d="M48.0096 96.9146H52.74C53.6737 96.9146 54.4206 97.6615 54.4413 98.5743L54.7525 119.177C54.7733 120.152 53.9434 120.94 52.9683 120.899L48.0304 120.629V96.9146H48.0096Z" fill="#D0625C"/>
<path fill-rule="evenodd" clip-rule="evenodd" d="M59.1717 86.1672H63.8814C64.815 86.1672 65.5619 86.9141 65.5827 87.8478L65.8939 119.156C65.8939 120.152 65.064 120.94 64.0681 120.857L59.1717 120.483V86.1672Z" fill="#D0625C"/>
<path fill-rule="evenodd" clip-rule="evenodd" d="M25.3327 106.645L29.7312 105.711C30.7685 105.504 31.7437 106.272 31.7644 107.33L32.0341 118.865C32.0549 119.84 31.2665 120.629 30.2913 120.587L25.3327 120.421V106.645Z" fill="#D0625C"/>
<path fill-rule="evenodd" clip-rule="evenodd" d="M13.1539 99.321C13.1539 98.4289 13.8594 97.682 14.7515 97.6405L17.7599 97.4745C18.735 97.433 19.5442 98.2007 19.5442 99.155V118.512C19.5442 119.405 18.8387 120.151 17.9466 120.193L14.9382 120.359C13.9631 120.4 13.1539 119.633 13.1539 118.678V99.321Z" fill="#E57772"/>
<path fill-rule="evenodd" clip-rule="evenodd" d="M24.7933 107.184C24.814 106.334 25.4572 105.628 26.3078 105.545L28.0713 105.359C29.5652 105.193 30.893 106.375 30.893 107.89V118.803C30.893 119.737 30.1461 120.504 29.1917 120.504H27.0962C25.6646 120.504 24.5235 119.342 24.565 117.911L24.7933 107.184Z" fill="#E57772"/>
<path fill-rule="evenodd" clip-rule="evenodd" d="M35.8102 95.0266C35.8309 94.1759 36.4741 93.4498 37.3247 93.3668L40.3538 93.0556C41.3497 92.9518 42.2211 93.7402 42.2211 94.7361V118.845C42.2211 119.737 41.5157 120.484 40.6236 120.525L37.304 120.691C36.3288 120.733 35.5197 119.965 35.5197 118.99L35.8102 95.0266Z" fill="#E57772"/>
<path fill-rule="evenodd" clip-rule="evenodd" d="M47.1175 97.6199C47.159 96.6448 48.0096 95.8978 48.9847 96.0016L52.0761 96.3335C52.9268 96.4165 53.5907 97.1427 53.5907 98.0141V118.761C53.5907 119.695 52.8438 120.463 51.8894 120.463H47.9266C46.9722 120.463 46.2046 119.654 46.2461 118.699L47.1175 97.6199Z" fill="#E57772"/>
<path fill-rule="evenodd" clip-rule="evenodd" d="M57.5534 87.0595C57.5327 86.1881 58.1551 85.4412 59.0265 85.3375L63.01 84.798C64.0266 84.6528 64.9188 85.4412 64.9188 86.4786V118.782C64.9188 119.716 64.1719 120.484 63.2175 120.484H60.1676C59.2547 120.484 58.5078 119.757 58.4871 118.845L57.5534 87.0595Z" fill="#E57772"/>
<path fill-rule="evenodd" clip-rule="evenodd" d="M19.5441 87.5782C19.5441 89.3209 18.1126 90.7525 16.349 90.7525C14.5855 90.7525 13.1539 89.3417 13.1539 87.5782C13.1539 85.8146 14.5855 84.4038 16.349 84.4038C18.1126 84.4038 19.5441 85.8146 19.5441 87.5782Z" fill="#5289DD"/>
<path fill-rule="evenodd" clip-rule="evenodd" d="M64.9188 75.3992C64.9188 77.142 63.4872 78.5736 61.7237 78.5736C59.9601 78.5736 58.5285 77.1627 58.5285 75.3992C58.5285 73.6564 59.9601 72.2249 61.7237 72.2249C63.4872 72.2249 64.9188 73.6357 64.9188 75.3992Z" fill="#5289DD"/>
<path fill-rule="evenodd" clip-rule="evenodd" d="M53.5699 86.354C53.5699 88.0968 52.1384 89.5284 50.3748 89.5284C48.6113 89.5284 47.1797 88.1176 47.1797 86.354C47.1797 84.5905 48.6113 83.1797 50.3748 83.1797C52.1384 83.1797 53.5699 84.6113 53.5699 86.354Z" fill="#5289DD"/>
<path fill-rule="evenodd" clip-rule="evenodd" d="M42.2211 82.7024C42.2211 84.4452 40.7896 85.8768 39.026 85.8768C37.2625 85.8768 35.8309 84.466 35.8309 82.7024C35.8309 80.9389 37.2625 79.5281 39.026 79.5281C40.7896 79.5281 42.2211 80.9596 42.2211 82.7024Z" fill="#5289DD"/>
<path fill-rule="evenodd" clip-rule="evenodd" d="M30.893 94.8814C30.893 96.6242 29.4615 98.0557 27.6979 98.0557C25.9344 98.0557 24.5028 96.6449 24.5028 94.8814C24.5028 93.1386 25.9344 91.707 27.6979 91.707C29.4615 91.707 30.893 93.1386 30.893 94.8814Z" fill="#5289DD"/>
<path opacity="0.81" d="M37.9471 72.9719C44.9368 72.9719 50.6031 67.2407 50.6031 60.1708C50.6031 53.1009 44.9368 47.3696 37.9471 47.3696C30.9574 47.3696 25.2912 53.1009 25.2912 60.1708C25.2912 67.2407 30.9574 72.9719 37.9471 72.9719Z" fill="#F7C4A1"/>
<path d="M34.918 71.499C42.6295 71.499 48.881 65.1825 48.881 57.3907C48.881 49.5989 42.6295 43.2825 34.918 43.2825C27.2064 43.2825 20.955 49.5989 20.955 57.3907C20.955 65.1825 27.2064 71.499 34.918 71.499Z" fill="#E3955C"/>
<path fill-rule="evenodd" clip-rule="evenodd" d="M35.0217 39.4649L35.8931 41.2076C35.9553 41.3321 36.0798 41.4151 36.2043 41.4359L38.1545 41.7056C38.5073 41.7471 38.6317 42.162 38.3828 42.411L36.9719 43.7596C36.8682 43.8633 36.8267 43.9878 36.8475 44.1123L37.1794 46.021C37.2417 46.353 36.889 46.602 36.5777 46.4567L34.835 45.5646C34.7105 45.5024 34.5652 45.5024 34.4408 45.5646L32.698 46.4567C32.3868 46.6227 32.0341 46.353 32.0963 46.021L32.4283 44.1123C32.449 43.9878 32.4075 43.8426 32.3038 43.7596L30.893 42.411C30.644 42.1828 30.7892 41.7678 31.1212 41.7056L33.0714 41.4359C33.2167 41.4151 33.3204 41.3321 33.3826 41.2076L34.254 39.4649C34.42 39.1536 34.8557 39.1536 35.0217 39.4649Z" fill="#FFC827"/>
<path fill-rule="evenodd" clip-rule="evenodd" d="M28.5485 42.2656L29.1087 43.303C29.1502 43.3652 29.2125 43.4275 29.3162 43.4275L30.5403 43.5934C30.7478 43.6142 30.8515 43.8632 30.6855 44.0084L29.7934 44.8175C29.7311 44.8798 29.7104 44.9628 29.7104 45.025L29.9179 46.1661C29.9594 46.3736 29.7311 46.5188 29.5444 46.4151L28.4448 45.8757C28.3618 45.8342 28.2788 45.8342 28.1958 45.8757L27.0962 46.4151C26.9095 46.5188 26.6813 46.3528 26.7228 46.1661L26.9302 45.025C26.951 44.942 26.9095 44.859 26.8473 44.8175L25.9551 44.0084C25.7891 43.8632 25.8929 43.6142 26.1003 43.5934L27.3244 43.4275C27.4074 43.4067 27.4904 43.3652 27.5319 43.303L28.0921 42.2656C28.1751 42.0996 28.4448 42.0996 28.5485 42.2656Z" fill="#FFC827"/>
<path fill-rule="evenodd" clip-rule="evenodd" d="M41.2044 42.2656L41.7646 43.303C41.8061 43.3652 41.8684 43.4275 41.9721 43.4275L43.1962 43.5934C43.4037 43.6142 43.5074 43.8632 43.3414 44.0084L42.4493 44.8175C42.387 44.8798 42.3663 44.9628 42.3663 45.025L42.5738 46.1661C42.6153 46.3736 42.387 46.5188 42.2003 46.4151L41.1007 45.8757C41.0177 45.8342 40.9347 45.8342 40.8517 45.8757L39.7521 46.4151C39.5654 46.5188 39.3372 46.3528 39.3787 46.1661L39.5861 45.025C39.6069 44.942 39.5654 44.859 39.5031 44.8175L38.611 44.0084C38.445 43.8632 38.5488 43.6142 38.7562 43.5934L39.9803 43.4275C40.0633 43.4067 40.1463 43.3652 40.1878 43.303L40.748 42.2656C40.831 42.0996 41.1007 42.0996 41.2044 42.2656Z" fill="#FFC827"/>
<path opacity="0.81" d="M18.5068 33.2614C24.8777 33.2614 30.0423 28.1339 30.0423 21.8088C30.0423 15.4837 24.8777 10.3562 18.5068 10.3562C12.1358 10.3562 6.97119 15.4837 6.97119 21.8088C6.97119 28.1339 12.1358 33.2614 18.5068 33.2614Z" fill="#89B2EF"/>
<path d="M14.1705 33.1369C21.9967 33.1369 28.341 26.839 28.341 19.0702C28.341 11.3013 21.9967 5.00342 14.1705 5.00342C6.3444 5.00342 6.10352e-05 11.3013 6.10352e-05 19.0702C6.10352e-05 26.839 6.3444 33.1369 14.1705 33.1369Z" fill="#5289DD"/>
<path fill-rule="evenodd" clip-rule="evenodd" d="M14.2743 1.14434L15.1664 2.88712C15.2287 3.01161 15.3532 3.0946 15.4777 3.11535L17.4694 3.38506C17.8221 3.42656 17.9466 3.84151 17.6976 4.09048L16.2661 5.43906C16.1623 5.54279 16.1208 5.66728 16.1416 5.79176L16.4735 7.70053C16.5358 8.03248 16.1623 8.28145 15.8511 8.13622L14.0876 7.22334C13.9631 7.16109 13.8179 7.16109 13.6934 7.22334L11.9091 8.11547C11.5979 8.28145 11.2244 8.01174 11.2867 7.67978L11.6186 5.77102C11.6394 5.64653 11.5979 5.5013 11.4942 5.41831L10.0626 4.06973C9.81361 3.84151 9.95885 3.42656 10.2908 3.36432L12.2826 3.0946C12.4278 3.07385 12.5315 2.99086 12.5938 2.86638L13.4859 1.12359C13.6519 0.853878 14.1083 0.853878 14.2743 1.14434Z" fill="#FFC827"/>
<path fill-rule="evenodd" clip-rule="evenodd" d="M7.69735 4.54698L8.25753 5.58435C8.29902 5.64659 8.38201 5.70883 8.465 5.70883L9.70985 5.87481C9.93807 5.89556 10.0211 6.14453 9.85508 6.28976L8.94219 7.09891C8.87995 7.16115 8.8592 7.24414 8.8592 7.30639L9.06668 8.44749C9.10817 8.65497 8.87995 8.8002 8.67248 8.69646L7.55212 8.15703C7.46913 8.11553 7.38614 8.11553 7.30315 8.15703L6.22428 8.73796C6.01681 8.82095 5.78858 8.67571 5.83008 8.46824L6.03755 7.32713C6.0583 7.24414 6.01681 7.16115 5.95456 7.11966L5.04168 6.31051C4.8757 6.16528 4.97943 5.91631 5.18691 5.89556L6.43175 5.72958C6.51474 5.70883 6.59773 5.66734 6.63923 5.6051L7.19941 4.56773C7.32389 4.36025 7.59361 4.36025 7.69735 4.54698Z" fill="#FFC827"/>
<path fill-rule="evenodd" clip-rule="evenodd" d="M20.8512 3.96597L21.4114 5.00334C21.4529 5.06559 21.5359 5.12783 21.6189 5.12783L22.8637 5.29381C23.0919 5.31456 23.1749 5.56352 23.0089 5.70876L22.0961 6.51791C22.0338 6.58015 22.0131 6.66314 22.0131 6.72538L22.2205 7.86649C22.262 8.07396 22.0338 8.21919 21.8263 8.11546L20.706 7.57602C20.623 7.53453 20.54 7.53453 20.457 7.57602L19.3366 8.11546C19.1499 8.21919 18.901 8.05321 18.9424 7.86649L19.1499 6.72538C19.1707 6.64239 19.1292 6.5594 19.0669 6.51791L18.154 5.70876C17.9881 5.56352 18.0918 5.31456 18.2993 5.29381L19.5441 5.12783C19.6271 5.10708 19.7101 5.06559 19.7516 5.00334L20.3118 3.96597C20.457 3.77925 20.7475 3.77925 20.8512 3.96597Z" fill="#FFC827"/>
<path d="M68.757 38.7801C75.1737 38.7801 80.3756 33.3833 80.3756 26.7259C80.3756 20.0685 75.1737 14.6716 68.757 14.6716C62.3402 14.6716 57.1384 20.0685 57.1384 26.7259C57.1384 33.3833 62.3402 38.7801 68.757 38.7801Z" fill="#FF193D" fill-opacity="0.2"/>
<path d="M65.7694 37.8881C73.3664 37.8881 79.5249 31.5066 79.5249 23.6346C79.5249 15.7626 73.3664 9.3811 65.7694 9.3811C58.1724 9.3811 52.0139 15.7626 52.0139 23.6346C52.0139 31.5066 58.1724 37.8881 65.7694 37.8881Z" fill="#FF193D"/>
<path fill-rule="evenodd" clip-rule="evenodd" d="M72.2426 8.34341L72.782 9.40153C72.8235 9.48452 72.8857 9.52602 72.9687 9.54676L74.1928 9.71274C74.4003 9.73349 74.4833 9.98246 74.3381 10.1277L73.4667 10.9576C73.4044 11.0198 73.3837 11.1028 73.3837 11.1858L73.5912 12.3477C73.6326 12.5551 73.4044 12.7004 73.2177 12.6174L72.1388 12.0779C72.0558 12.0365 71.9729 12.0365 71.8899 12.0779L70.811 12.6174C70.6243 12.7211 70.396 12.5551 70.4375 12.3477L70.645 11.1858C70.6658 11.1028 70.6243 11.0198 70.562 10.9576L69.6906 10.1277C69.5454 9.98246 69.6284 9.73349 69.8359 9.71274L71.06 9.54676C71.143 9.52602 71.2259 9.48452 71.2467 9.40153L71.7861 8.34341C71.8691 8.15669 72.1596 8.15669 72.2426 8.34341Z" fill="#FFC827"/>
<path fill-rule="evenodd" clip-rule="evenodd" d="M59.1925 8.34341L59.7319 9.40153C59.7734 9.48452 59.8356 9.52602 59.9186 9.54676L61.1427 9.71274C61.3502 9.73349 61.4332 9.98246 61.2879 10.1277L60.4166 10.9576C60.3543 11.0198 60.3336 11.1028 60.3336 11.1858L60.541 12.3477C60.5825 12.5551 60.3543 12.7004 60.1676 12.6174L59.0887 12.0779C59.0057 12.0365 58.9227 12.0365 58.8398 12.0779L57.7609 12.6174C57.5742 12.7211 57.3459 12.5551 57.3874 12.3477L57.5949 11.1858C57.6157 11.1028 57.5742 11.0198 57.5119 10.9576L56.6405 10.1277C56.4953 9.98246 56.5783 9.73349 56.7858 9.71274L58.0099 9.54676C58.0928 9.52602 58.1758 9.48452 58.1966 9.40153L58.736 8.34341C58.8398 8.15669 59.1095 8.15669 59.1925 8.34341Z" fill="#FFC827"/>
<path fill-rule="evenodd" clip-rule="evenodd" d="M65.8524 5.50123L66.7238 7.26476C66.786 7.38925 66.8897 7.47224 67.035 7.49298L68.9645 7.78345C69.2964 7.82494 69.4417 8.23989 69.1927 8.48886L67.8026 9.85819C67.6989 9.96193 67.6574 10.0864 67.6782 10.2316L68.0101 12.1612C68.0723 12.4931 67.7196 12.7628 67.4084 12.5968L65.6864 11.684C65.5619 11.6217 65.4167 11.6217 65.2922 11.684L63.5702 12.5968C63.2589 12.7628 62.9062 12.4931 62.9685 12.1612L63.3004 10.2316C63.3212 10.1072 63.2797 9.96193 63.176 9.85819L61.7859 8.48886C61.5369 8.23989 61.6821 7.82494 62.0141 7.78345L63.9436 7.49298C64.0681 7.47224 64.1926 7.38925 64.2548 7.26476L65.1262 5.50123C65.2714 5.19002 65.7071 5.19002 65.8524 5.50123Z" fill="#FFC827"/>
<path fill-rule="evenodd" clip-rule="evenodd" d="M78.1349 123.679C78.1556 124.197 78.5706 124.591 79.027 124.571L109.332 123.578C110.436 123.542 111.301 122.618 111.265 121.514L110.605 101.334C110.439 96.0845 106.268 91.9558 101.33 92.1218L86.0811 92.6197C81.1432 92.7857 77.2635 97.1841 77.4294 102.433L78.1349 123.679Z" fill="#C26262"/>
<path d="M98.1354 99.4248C97.8657 101.832 97.6375 104.28 97.43 106.79C97.1395 110.359 96.932 113.824 96.8076 117.185C96.3719 117.205 95.9362 117.205 95.5005 117.226C95.376 114.487 95.127 111.355 94.6083 107.91C94.1934 105.027 93.6747 102.454 93.1768 100.234C93.4465 100.441 94.2349 100.96 95.3552 100.939C97.0358 100.898 98.0109 99.5908 98.1354 99.4248Z" fill="#EAE7E7"/>
<path fill-rule="evenodd" clip-rule="evenodd" d="M95.3345 100.94C97.264 100.877 98.7993 99.259 98.7371 97.3088L98.7163 96.5411C98.6541 94.6116 97.0358 93.0763 95.0855 93.1385C93.156 93.2008 91.6207 94.8191 91.6829 96.7693L91.7037 97.537C91.7659 99.508 93.405 101.002 95.3345 100.94Z" fill="#E2AA9F"/>
<path fill-rule="evenodd" clip-rule="evenodd" d="M89.3799 94.9641C88.965 94.6737 88.4255 94.7981 88.1143 95.1508L87.8446 95.4828C87.5126 95.877 87.4712 96.4579 87.7409 96.8936L90.7492 101.956C90.9982 102.35 91.4547 102.578 91.8489 102.412C92.7617 102.08 94.2141 101.292 94.0896 99.7983C93.9651 98.1385 90.8322 95.8978 89.3799 94.9641Z" fill="#EAE7E7"/>
<path fill-rule="evenodd" clip-rule="evenodd" d="M101.496 94.819C101.932 94.5492 102.472 94.653 102.824 95.0472L103.115 95.3791C103.467 95.7733 103.509 96.375 103.239 96.8107L100.148 101.915C99.8989 102.309 99.4425 102.537 98.986 102.371C98.0316 101.998 96.5171 101.209 96.6001 99.6531C96.7453 97.9311 99.9819 95.7318 101.496 94.819Z" fill="#EAE7E7"/>
<path fill-rule="evenodd" clip-rule="evenodd" d="M80.3548 95.1095C82.3466 95.0472 84.0271 96.6033 84.0894 98.595L84.774 119.322C84.8363 121.147 83.384 122.724 81.5167 122.787C79.6909 122.849 78.1141 121.396 78.0519 119.529L77.471 101.977C77.3672 99.259 78.5083 96.79 80.3548 95.1095Z" fill="#C26262"/>
<path d="M95.7494 101.417C95.3552 101.437 95.044 101.665 95.044 101.977L95.3345 110.649C95.3345 110.919 95.6872 111.168 96.0606 111.147C96.4548 111.126 96.766 110.898 96.766 110.587L96.4756 101.914C96.4756 101.645 96.1644 101.417 95.7494 101.417Z" fill="#C26262"/>
<path fill-rule="evenodd" clip-rule="evenodd" d="M81.164 82.9308C81.4545 91.707 88.5293 98.5951 96.9943 98.3254C105.459 98.0557 112.078 90.6904 111.787 81.9349C111.497 73.1795 104.422 66.2706 95.9569 66.5404C87.4712 66.8101 80.8735 74.1132 81.164 82.9308Z" fill="#F7B9A9"/>
<path fill-rule="evenodd" clip-rule="evenodd" d="M81.164 82.8271C81.0395 78.9058 82.2636 75.275 84.3798 72.4326C82.3673 82.4121 83.6952 93.3875 95.5419 98.3669C87.7202 97.8482 81.4337 91.1883 81.164 82.8271Z" fill="#E2AA9F"/>
<path fill-rule="evenodd" clip-rule="evenodd" d="M81.0602 82.2043C81.0602 83.2417 81.1847 84.2168 81.1847 84.2168C81.2262 84.6318 81.4337 86.0426 82.0769 87.8061C82.4088 88.7398 82.969 90.0054 83.8819 91.4162C84.0686 90.773 84.3176 89.9846 84.691 89.0717C84.857 88.636 85.106 88.0136 85.5209 87.2667C86.2678 85.8974 86.9318 85.2335 87.4919 83.9471C88.7575 80.9387 87.0977 79.7146 88.2803 77.6606C89.4629 75.5652 91.9319 74.922 94.4008 74.3411C101.974 72.4945 107.575 75.3369 109.09 72.8058C109.443 72.2248 109.401 71.6439 109.38 71.4572C109.173 68.6978 103.924 66.8305 100.895 66.3118C94.629 65.2329 86.5376 67.7019 83.2595 73.4904C81.4959 76.5195 81.0602 80.5445 81.0602 82.2043Z" fill="#253051"/>
<path fill-rule="evenodd" clip-rule="evenodd" d="M85.2719 83.6152C85.6039 85.0468 86.5583 86.0011 87.4712 85.8144C88.3633 85.6277 88.8612 84.2998 88.5293 82.9098C88.1973 81.4782 87.2429 80.5238 86.3301 80.7105C85.4172 80.918 84.94 82.2251 85.2719 83.6152Z" fill="#F7B9A9"/>
<path fill-rule="evenodd" clip-rule="evenodd" d="M98.1976 90.2338C98.9445 90.1923 99.5462 89.5284 99.484 88.7815C99.4425 88.0346 98.7786 87.4329 98.0317 87.4952C97.2848 87.5366 96.6831 88.2006 96.7453 88.9475C96.7868 89.6944 97.43 90.2753 98.1976 90.2338Z" fill="white"/>
<path fill-rule="evenodd" clip-rule="evenodd" d="M98.3013 90.3584C98.9237 90.3169 99.4217 89.7774 99.3802 89.155C99.3387 88.5326 98.7993 88.0347 98.1768 88.0761C97.5544 88.1176 97.0565 88.6571 97.098 89.2795C97.1395 89.9019 97.6789 90.3999 98.3013 90.3584Z" fill="#253051"/>
<path fill-rule="evenodd" clip-rule="evenodd" d="M106.497 89.7568C107.243 89.7153 107.845 89.0513 107.783 88.3044C107.741 87.5575 107.078 86.9559 106.331 87.0181C105.584 87.0596 104.982 87.7235 105.044 88.4704C105.106 89.2173 105.75 89.7983 106.497 89.7568Z" fill="white"/>
<path fill-rule="evenodd" clip-rule="evenodd" d="M106.58 89.8811C107.202 89.8396 107.7 89.3001 107.658 88.6777C107.617 88.0553 107.078 87.5574 106.455 87.5989C105.833 87.6403 105.335 88.1798 105.376 88.8022C105.397 89.4246 105.957 89.9226 106.58 89.8811Z" fill="#253051"/>
<path fill-rule="evenodd" clip-rule="evenodd" d="M98.9652 92.8479C98.9652 94.4247 100.231 95.6488 101.766 95.6488C103.343 95.6488 104.567 94.3832 104.567 92.8479H98.9652Z" fill="#A58476"/>
<path fill-rule="evenodd" clip-rule="evenodd" d="M105.272 84.0303L108.883 84.8394C109.069 84.9017 109.235 85.0054 109.297 85.1714L109.339 85.2544C109.401 85.3788 109.339 85.5033 109.214 85.5448C109.173 85.5448 109.131 85.5863 109.09 85.5448L105.314 85.1921C105.023 85.1714 104.816 84.9846 104.733 84.7357L104.671 84.466C104.609 84.2585 104.754 83.9888 105.023 83.9473C105.106 84.0095 105.21 84.0095 105.272 84.0303Z" fill="#243051"/>
<path fill-rule="evenodd" clip-rule="evenodd" d="M99.5669 84.6319L95.8117 85.7938C95.6249 85.856 95.4382 86.0013 95.3967 86.188L95.376 86.2917C95.3137 86.4162 95.376 86.5407 95.5419 86.5615C95.5627 86.5615 95.6457 86.5822 95.6664 86.5615L99.6292 85.8975C99.8989 85.856 100.148 85.6693 100.21 85.4203L100.272 85.1299C100.335 84.8809 100.127 84.6734 99.8782 84.6527C99.7122 84.5905 99.6292 84.5905 99.5669 84.6319Z" fill="#243051"/>
<path fill-rule="evenodd" clip-rule="evenodd" d="M106.227 73.9262C106.497 73.9262 106.974 73.9054 107.513 74.0714C110.999 75.171 111.787 82.4326 111.766 82.1629C111.787 81.7272 111.829 80.9803 111.725 79.9429C111.538 77.8889 110.688 76.0424 110.688 76.0424C110.107 74.6938 109.401 73.5942 108.737 72.8058C109.069 72.4739 109.214 72.0174 109.049 71.6647C108.945 71.4572 108.8 71.3535 108.696 71.312C107.845 72.1834 107.036 73.0548 106.227 73.9262Z" fill="#253051"/>
<path fill-rule="evenodd" clip-rule="evenodd" d="M80.6876 82.0046C80.7074 81.9829 80.7282 81.982 80.7687 81.9595C81.2969 81.6875 81.8242 81.3948 82.3524 81.1228C83.2465 80.6688 84.1416 80.2356 85.0573 79.8015C85.6883 79.5043 86.3201 79.2278 86.9519 78.9513C87.1358 78.8811 87.298 78.791 87.4819 78.7208C87.563 78.6758 87.6658 78.6505 87.7469 78.6055C88.869 78.1417 89.9921 77.6987 91.116 77.2763C92.0768 76.9234 93.0385 76.5911 94.0218 76.2787C94.4725 76.1346 94.9231 75.9906 95.3738 75.8465C95.6604 75.7511 95.9479 75.6763 96.2354 75.6016C96.7275 75.4558 97.2205 75.3307 97.7144 75.2263C98.0434 75.1498 98.3723 75.0733 98.6815 75.0184C98.7022 75.0175 98.7022 75.0175 98.7229 75.0166C98.7644 75.0148 98.8257 74.9914 98.8671 74.9896C99.2168 74.9122 99.5674 74.8555 99.8973 74.7998C100.598 74.6864 101.281 74.6154 101.984 74.5435C102.211 74.513 102.439 74.5031 102.667 74.4933C103.785 74.4242 104.885 74.3975 106.008 74.4321C107.296 74.4595 108.568 74.5707 109.843 74.7649C109.948 74.7811 110.052 74.7974 110.157 74.8136L110.156 74.7929L109.435 68.1994L109.359 67.4136L109.174 65.5318L108.812 61.9548L108.595 59.8044L108.405 57.819C108.365 57.3639 108.201 56.9349 107.936 56.5725C107.781 56.3507 107.607 56.1713 107.394 56.0352C107.136 55.8387 106.86 55.7052 106.546 55.6357C106.525 55.6366 106.504 55.6168 106.483 55.6177C105.789 55.4192 105.006 55.5568 104.382 56.0199L103.558 56.6577L99.5972 59.6737L99.4367 59.8053L98.8337 60.2674L98.4713 60.5323L97.5059 61.2592L96.2187 62.2286L93.8263 64.0555L93.3035 64.4519L91.2321 66.0158L90.1666 66.8301L89.5437 67.3139L86.8295 69.3832L84.4164 71.211C83.5917 71.8281 82.92 72.6254 82.4403 73.5391C82.0363 74.2834 81.7603 75.1052 81.6113 75.9839L80.6876 82.0046Z" fill="#E3955C"/>
<path fill-rule="evenodd" clip-rule="evenodd" d="M104.809 71.2026L106.365 73.5651L108.618 71.8896L109.38 67.4126L109.175 65.5524L109.174 65.5317L108.04 63.7947L105.787 65.4703L104.809 71.2026Z" fill="#F3C0B7"/>
<path fill-rule="evenodd" clip-rule="evenodd" d="M98.704 75.059C98.7247 75.0581 98.7247 75.0581 98.7454 75.0572C98.7869 75.0554 98.8482 75.032 98.8896 75.0302C99.2393 74.9528 99.5899 74.8961 99.9198 74.8403C100.621 74.727 101.303 74.656 102.006 74.5841C102.233 74.5535 102.461 74.5437 102.689 74.5339L103.168 71.6681L101.612 69.3056L99.3793 70.9803L98.704 75.059Z" fill="#20201F"/>
<path fill-rule="evenodd" clip-rule="evenodd" d="M96.2178 62.2077L96.9952 63.3786L99.228 61.7039L99.5756 59.6538L99.4151 59.7853L98.8121 60.2474L98.4704 60.5114L97.505 61.2384L96.2178 62.2077Z" fill="#F3C0B7"/>
<path fill-rule="evenodd" clip-rule="evenodd" d="M89.5428 67.293L90.5868 68.8678L92.8196 67.1931L93.3026 64.431L91.2311 65.9949L90.1657 66.8093L89.5428 67.293Z" fill="#20201F"/>
<path fill-rule="evenodd" clip-rule="evenodd" d="M87.1271 77.7184L87.728 78.6478C88.8501 78.184 89.9731 77.7409 91.0971 77.3186L91.8924 72.6533L90.3368 70.2907L88.104 71.9654L87.1271 77.7184Z" fill="#20201F"/>
<path fill-rule="evenodd" clip-rule="evenodd" d="M82.4385 73.4977L83.8167 75.5979L86.0496 73.9232L86.8287 69.3624L84.4156 71.1903C83.5908 71.8073 82.9182 72.584 82.4385 73.4977Z" fill="#F3C0B7"/>
<path fill-rule="evenodd" clip-rule="evenodd" d="M80.7687 81.9595C81.2969 81.6875 81.8242 81.3948 82.3524 81.1228C83.2465 80.6688 84.1415 80.2356 85.0573 79.8015L85.1412 79.341L83.5856 76.9785L81.3528 78.6531L80.7687 81.9595Z" fill="#F3C0B7"/>
<path fill-rule="evenodd" clip-rule="evenodd" d="M91.1178 77.3178C92.0786 76.9648 93.0403 76.6326 94.0236 76.3201C94.4742 76.1761 94.9249 76.032 95.3755 75.888C95.6621 75.7925 95.9497 75.7178 96.2372 75.6431C96.7293 75.4972 97.2223 75.3721 97.7162 75.2677C98.0451 75.1912 98.3741 75.1147 98.6832 75.0598C98.7039 75.059 98.7039 75.059 98.7247 75.0581C98.7661 75.0563 98.8274 75.0329 98.8689 75.0311L99.3793 70.9803L101.612 69.3056L103.168 71.6681L104.81 71.2234L105.788 65.4911L108.02 63.8164L109.175 65.5525L108.813 61.9755L108.596 59.8252L108.406 57.8397C108.366 57.3846 108.202 56.9556 107.937 56.5932C107.782 56.3715 107.608 56.1921 107.395 56.0559C107.137 55.8594 106.861 55.7259 106.547 55.6564C106.526 55.6573 106.504 55.6375 106.484 55.6384C105.79 55.4399 105.007 55.5776 104.383 56.0406L103.559 56.6784L99.5981 59.6945L99.4376 59.826L99.2505 61.7446L97.0177 63.4193L96.7883 64.8414L94.5555 66.516L93.5778 72.2483L91.9357 72.693L91.1178 77.3178Z" fill="#C26262"/>
<path fill-rule="evenodd" clip-rule="evenodd" d="M106.714 60.0104L108.27 62.3729L108.812 61.9549L108.595 59.8045L108.405 57.8191C108.365 57.364 108.201 56.935 107.936 56.5726C107.781 56.3509 107.607 56.1715 107.394 56.0353L106.714 60.0104Z" fill="#F3C0B7"/>
<path fill-rule="evenodd" clip-rule="evenodd" d="M100.306 65.4995L101.283 59.7672L103.537 58.0916L105.093 60.4541L104.115 66.1864L101.861 67.862L100.306 65.4995Z" fill="#20201F"/>
<path fill-rule="evenodd" clip-rule="evenodd" d="M93.5346 72.2087L94.5123 66.4764L96.7451 64.8017L98.3008 67.1643L97.3231 72.8966L95.0903 74.5712L93.5346 72.2087Z" fill="#F3C0B7"/>
<path d="M98.9653 104.757C99.2174 104.757 99.4217 104.553 99.4217 104.301C99.4217 104.049 99.2174 103.844 98.9653 103.844C98.7132 103.844 98.5089 104.049 98.5089 104.301C98.5089 104.553 98.7132 104.757 98.9653 104.757Z" fill="#EAE7E7"/>
<path d="M98.6333 108.263C98.8854 108.263 99.0898 108.059 99.0898 107.807C99.0898 107.555 98.8854 107.351 98.6333 107.351C98.3812 107.351 98.1769 107.555 98.1769 107.807C98.1769 108.059 98.3812 108.263 98.6333 108.263Z" fill="#EAE7E7"/>
<path d="M93.4257 108.429C93.6778 108.429 93.8821 108.225 93.8821 107.973C93.8821 107.721 93.6778 107.516 93.4257 107.516C93.1736 107.516 92.9693 107.721 92.9693 107.973C92.9693 108.225 93.1736 108.429 93.4257 108.429Z" fill="#EAE7E7"/>
<path d="M92.8448 104.944C93.0969 104.944 93.3012 104.739 93.3012 104.487C93.3012 104.235 93.0969 104.031 92.8448 104.031C92.5927 104.031 92.3883 104.235 92.3883 104.487C92.3883 104.739 92.5927 104.944 92.8448 104.944Z" fill="#EAE7E7"/>
<path fill-rule="evenodd" clip-rule="evenodd" d="M95.5834 110.379C94.3801 108.989 92.2639 108.803 90.8738 110.006C90.8738 110.006 89.7119 110.981 89.1102 111.5C86.7243 113.533 90.9775 118.72 93.5087 116.562C94.0896 116.085 95.21 115.11 95.21 115.11C96.6416 113.927 96.7868 111.811 95.5834 110.379Z" fill="#EAE7E7"/>
<path d="M93.5917 117.309L95.044 106.292C95.1685 105.379 96.0191 104.653 96.9528 104.653H113.551C114.484 104.653 115.127 105.4 114.962 106.292L113.094 117.309C112.949 118.222 112.078 118.948 111.165 118.948H95.0233C94.1104 118.969 93.4672 118.222 93.5917 117.309Z" fill="#F2F2F2"/>
<path d="M95.1062 106.271C100.604 110.504 105.999 114.736 111.289 118.969C105.75 118.969 100.21 118.948 94.6498 118.948C93.9236 118.948 93.4049 118.388 93.5087 117.683L95.1062 106.271Z" fill="#C9C9C9"/>
<path d="M104.09 114.239C104.671 114.239 105.169 113.761 105.169 113.16C105.169 112.558 104.692 112.081 104.09 112.081C103.488 112.081 103.011 112.558 103.011 113.16C103.032 113.761 103.509 114.239 104.09 114.239Z" fill="white"/>
<path fill-rule="evenodd" clip-rule="evenodd" d="M97.5337 112.475C97.5959 114.653 95.9154 116.458 93.7369 116.541C91.5584 116.624 89.7534 114.923 89.6704 112.745C89.6082 110.566 91.2887 108.761 93.4672 108.678C95.6457 108.616 97.4507 110.317 97.5337 112.475Z" fill="#F7B9A9"/>
<path fill-rule="evenodd" clip-rule="evenodd" d="M107.824 112.288C108.468 114.487 110.708 115.753 112.908 115.11C115.107 114.467 116.372 112.226 115.729 110.027C115.086 107.828 112.845 106.562 110.646 107.205C108.488 107.848 107.223 110.11 107.824 112.288Z" fill="#F7B9A9"/>
<path fill-rule="evenodd" clip-rule="evenodd" d="M55.126 25.2941C54.1716 30.8544 57.9062 36.145 63.4457 37.0994C69.006 38.0537 74.2966 34.3192 75.251 28.7796C76.2054 23.2193 72.4709 17.9287 66.9313 16.9744C61.3502 15.9992 56.0804 19.7338 55.126 25.2941Z" fill="#F4C1B8"/>
<path fill-rule="evenodd" clip-rule="evenodd" d="M55.0638 24.9C55.4994 22.3481 56.7858 20.1696 58.5701 18.6343C55.9144 24.7755 55.3127 32.0786 62.5121 36.9128C57.429 35.5019 54.1301 30.3566 55.0638 24.9Z" fill="#E2AA9F"/>
<path fill-rule="evenodd" clip-rule="evenodd" d="M63.4473 28.8478C63.3542 29.4106 63.7263 29.9508 64.2844 30.0409C64.8657 30.1309 65.3772 29.7482 65.4935 29.1854C65.5865 28.6227 65.2145 28.0824 64.6564 27.9924C64.0983 27.9023 63.5403 28.285 63.4473 28.8478Z" fill="white"/>
<path fill-rule="evenodd" clip-rule="evenodd" d="M63.7581 28.7114C63.6878 29.1623 63.9923 29.5906 64.4374 29.6582C64.8824 29.7258 65.3274 29.4328 65.3977 28.9594C65.468 28.5085 65.1635 28.0802 64.7184 28.0126C64.2734 27.9675 63.8518 28.2606 63.7581 28.7114Z" fill="#202020"/>
<path fill-rule="evenodd" clip-rule="evenodd" d="M69.6922 29.7401C69.5992 30.3029 69.9712 30.8432 70.5293 30.9332C71.1106 31.0232 71.6222 30.6406 71.7385 30.0778C71.8315 29.515 71.4594 28.9748 70.9014 28.8847C70.32 28.7947 69.7852 29.1774 69.6922 29.7401Z" fill="white"/>
<path fill-rule="evenodd" clip-rule="evenodd" d="M70.003 29.6017C69.9328 30.0513 70.2373 30.4785 70.6823 30.5459C71.1274 30.6133 71.5724 30.3211 71.6427 29.849C71.7129 29.3994 71.4084 28.9723 70.9634 28.9049C70.5184 28.8374 70.0967 29.1521 70.003 29.6017Z" fill="#202020"/>
<path fill-rule="evenodd" clip-rule="evenodd" d="M65.147 32.5764C64.9811 33.4893 65.7072 34.3607 66.7031 34.5267C67.7197 34.6927 68.6741 34.1117 68.8193 33.2196L65.147 32.5764Z" fill="#A58476"/>
<path fill-rule="evenodd" clip-rule="evenodd" d="M68.7778 15.0866C71.8069 15.8957 75.9979 18.2817 75.7904 20.7299C75.7074 21.622 75.0643 22.2237 74.7738 22.5349C71.9729 25.1906 66.3088 22.8254 65.5619 22.5349C64.5038 22.0784 62.8025 21.1863 61.0805 19.402C61.1427 20.3357 61.1427 22.6594 59.7734 25.0868C58.2796 27.7425 56.0389 28.9458 55.2297 29.3608C54.5036 27.5558 54.2131 25.5433 54.6073 23.5308C54.7733 22.6386 55.2297 20.6469 56.7858 18.7174C57.1385 18.2817 58.0721 17.1821 59.6074 16.2692C63.6324 13.7795 68.0516 14.8998 68.7778 15.0866Z" fill="#202020"/>
<path fill-rule="evenodd" clip-rule="evenodd" d="M63.4042 27.3275C63.6739 27.1822 64.2134 26.9125 64.9603 26.9747C65.147 26.9955 65.8317 27.037 65.9354 27.3482C65.9561 27.4104 65.9561 27.5764 65.8524 27.6387C65.8109 27.6802 65.7694 27.6594 65.7279 27.6594C65.4582 27.6387 64.8773 27.4312 64.5868 27.3897C64.3793 27.3482 64.2341 27.3689 63.9437 27.4104C63.2175 27.4934 62.7818 27.8046 62.761 27.7839C62.7818 27.7424 63.0308 27.5142 63.4042 27.3275Z" fill="#202020"/>
<path fill-rule="evenodd" clip-rule="evenodd" d="M72.4708 28.8835C72.2841 28.6553 71.8484 28.1989 71.143 27.9914C70.977 27.9291 70.3131 27.7217 70.1056 27.9914C70.0641 28.0536 70.0019 28.1989 70.0641 28.2818C70.1056 28.3233 70.1264 28.3441 70.1679 28.3441C70.4376 28.4271 71.0393 28.4478 71.309 28.4893C71.5165 28.5308 71.6409 28.5931 71.8899 28.7383C72.5123 29.0702 72.8443 29.5474 72.865 29.5059C72.9273 29.4852 72.7613 29.174 72.4708 28.8835Z" fill="#202020"/>
<path fill-rule="evenodd" clip-rule="evenodd" d="M73.6327 22.8875C73.9439 23.2402 74.2759 23.6759 74.5456 24.1946C75.6867 26.3108 75.334 28.4893 75.1473 29.3607C75.5208 28.2196 76.1017 25.8958 75.251 23.3854C75.0436 22.8045 74.7946 22.2858 74.5456 21.8501C74.2344 22.1821 73.9232 22.5348 73.6327 22.8875Z" fill="#202020"/>
<path fill-rule="evenodd" clip-rule="evenodd" d="M57.8647 26.2072C57.4705 27.0163 57.6364 27.8462 58.1966 28.0952C58.7568 28.3442 59.5452 27.867 59.9186 27.0786C60.3128 26.2694 60.1469 25.4395 59.5867 25.1905C59.0058 24.9416 58.2381 25.4188 57.8647 26.2072Z" fill="#F4C1B8"/>
<path fill-rule="evenodd" clip-rule="evenodd" d="M24.98 55.6478C24.98 55.6063 24.9385 55.5648 24.897 55.5856C24.0671 55.9798 18.486 58.9259 19.9384 64.5692C20.9965 68.6565 19.6894 70.0673 18.735 70.5445C18.6105 70.6067 18.6313 70.8972 18.7765 70.8972C21.1832 71.0217 27.4282 70.0673 24.9385 56.54V56.5192L24.98 55.6478Z" fill="#202020"/>
<path d="M23.0089 58.2618C22.843 57.7639 22.8015 57.3074 22.8222 56.9962C22.8222 56.9547 22.7807 56.9132 22.7392 56.934C22.594 56.9962 22.3865 57.1 22.2205 57.3282C22.1583 57.4319 22.0961 57.5149 22.0546 57.5979C22.0546 57.6186 22.0546 57.6186 22.0546 57.6186C22.0753 57.9299 22.1376 58.5938 22.594 59.2784C23.2372 60.1913 24.1916 60.4403 24.5028 60.5025C24.5235 60.5025 24.5443 60.5025 24.565 60.461C24.5857 60.4196 24.6272 60.3781 24.6687 60.3366C24.7102 60.2743 24.7725 60.2536 24.7932 60.2121C24.5235 60.0876 23.4654 59.5067 23.0089 58.2618Z" fill="#E57772"/>
<path fill-rule="evenodd" clip-rule="evenodd" d="M40.5613 54.2576C40.5406 54.2161 40.5821 54.1746 40.6443 54.1746C41.5364 54.3613 47.6362 56.0003 47.5117 61.8304C47.3872 66.0628 48.9848 67.121 50.0221 67.3907C50.1674 67.4114 50.2089 67.7019 50.0636 67.7434C47.7399 68.3865 41.4327 68.8637 40.8103 55.1289V55.1082L40.5613 54.2576Z" fill="#202020"/>
<path d="M43.0717 56.3532C43.134 55.8138 43.051 55.3781 42.968 55.0669C42.9472 55.0254 42.9887 54.9839 43.051 54.9839C43.2169 55.0046 43.4452 55.0669 43.6526 55.2536C43.7564 55.3158 43.8186 55.3988 43.8809 55.4818C43.8809 55.5026 43.9016 55.4818 43.9016 55.5026C43.9431 55.793 44.0468 56.4777 43.7356 57.2454C43.3207 58.2827 42.4493 58.7392 42.1588 58.8637C42.1381 58.8844 42.1173 58.8636 42.0758 58.8429C42.0551 58.8014 41.9928 58.7807 41.9513 58.7599C41.8891 58.7184 41.8476 58.6977 41.7854 58.6769C42.0136 58.4487 42.9265 57.6603 43.0717 56.3532Z" fill="#E57772"/>
<path fill-rule="evenodd" clip-rule="evenodd" d="M43.1132 58.1788C43.8809 63.905 40.1256 69.1126 34.7105 69.8388C29.3162 70.565 24.2953 66.5192 23.5484 60.7929C22.7808 55.0666 26.536 49.859 31.9511 49.1329C37.3454 48.4067 42.3456 52.4525 43.1132 58.1788Z" fill="#F4C1B8"/>
<path fill-rule="evenodd" clip-rule="evenodd" d="M43.1132 58.1791C43.0095 57.3907 42.7813 56.3118 42.2418 55.1085C41.5987 53.6769 40.7688 52.681 40.1671 52.0793C40.6443 53.3242 41.1837 55.2122 41.3704 57.5359C41.4742 58.9882 41.6402 61.0215 40.9347 63.2415C39.8351 66.7685 37.2624 68.7603 36.0383 69.5694C36.7438 69.3619 39.8144 68.4076 41.7646 65.1087C43.5489 62.0589 43.217 59.009 43.1132 58.1791Z" fill="#E2AA9F"/>
<path fill-rule="evenodd" clip-rule="evenodd" d="M30.4366 49.3822C31.1627 49.1539 31.7437 49.0917 31.8681 49.0917C37.2832 48.3655 42.4078 52.1623 43.134 57.5774C43.1962 58.0131 43.217 58.4488 43.217 58.8845C43.217 58.926 43.1962 58.9467 43.1755 58.9467C42.2626 59.1334 36.9513 59.1749 33.5487 56.5815C33.03 56.1873 32.2623 56.291 31.8681 56.8305C30.8308 58.2828 28.4656 60.7725 23.9634 61.9343C23.9219 61.9343 23.8804 61.9551 23.8389 61.9551C23.8181 61.9343 23.7767 61.9343 23.7559 61.9136C23.5899 61.3742 23.4654 60.814 23.3825 60.2331C23.3825 60.2331 23.175 58.677 23.4447 57.1209C24.0256 54.0711 26.6398 50.5233 30.4366 49.3822Z" fill="#202020"/>
<path fill-rule="evenodd" clip-rule="evenodd" d="M32.7236 64.7844C32.8105 65.3639 32.4049 65.8854 31.8254 65.9434C31.2459 66.0303 30.7244 65.6247 30.6664 65.0452C30.6085 64.4657 30.9851 63.9442 31.5646 63.8862C32.1151 63.8283 32.6367 64.205 32.7236 64.7844Z" fill="white"/>
<path fill-rule="evenodd" clip-rule="evenodd" d="M35.7479 66.1667C35.7894 66.1667 35.8516 66.2082 35.8309 66.2497C35.8931 67.1004 35.3122 67.8473 34.4408 67.9718C33.5901 68.0755 32.8017 67.5153 32.6565 66.6854C32.6565 66.6439 32.6773 66.5817 32.7188 66.5817L35.7479 66.1667Z" fill="#A58476"/>
<path fill-rule="evenodd" clip-rule="evenodd" d="M32.7713 65.1998C32.8411 65.6507 32.527 66.0669 32.0733 66.1362C31.6195 66.2056 31.2007 65.8934 31.1309 65.4426C31.0611 64.9917 31.3752 64.5755 31.8289 64.5061C32.3176 64.402 32.7015 64.7142 32.7713 65.1998Z" fill="#202020"/>
<path fill-rule="evenodd" clip-rule="evenodd" d="M37.869 64.0988C37.9559 64.6766 37.5503 65.1967 36.9708 65.2544C36.3913 65.3411 35.8698 64.9366 35.8118 64.3588C35.7539 63.7809 36.1305 63.2609 36.71 63.2031C37.2605 63.1164 37.782 63.5209 37.869 64.0988Z" fill="white"/>
<path fill-rule="evenodd" clip-rule="evenodd" d="M37.7507 64.3645C37.8205 64.818 37.5064 65.2366 37.0527 65.3063C36.599 65.3761 36.1801 65.0622 36.1103 64.6087C36.0405 64.1552 36.3546 63.7366 36.8084 63.6669C37.2621 63.5971 37.6809 63.8762 37.7507 64.3645Z" fill="#202020"/>
<path d="M29.4615 63.6771C29.4407 63.6771 29.5444 63.5526 29.6067 63.4696C29.6067 63.4696 30.0424 62.9924 30.8308 62.8679C30.8515 62.8679 30.8723 62.8679 30.8723 62.8679C30.9138 62.8679 30.976 62.8472 31.0798 62.8472C31.308 62.8472 31.5362 62.8679 31.7644 62.9094C31.8059 62.9094 31.8267 62.9716 31.8059 62.9924L31.7852 63.0754C31.7852 63.0961 31.7852 63.0961 31.7852 63.0961C31.7852 63.1169 31.7437 63.1169 31.7644 63.1169C31.7644 63.1169 31.5362 63.0961 31.474 63.0754C31.4325 63.0754 31.1627 63.0339 30.893 63.0546C30.7685 63.0546 30.1669 63.0961 29.6897 63.4903C29.6067 63.5733 29.4822 63.6771 29.4615 63.6771Z" fill="#202020"/>
<path d="M37.47 62.5981C37.47 62.5774 37.3662 62.4944 37.2625 62.4321C37.2625 62.4321 36.723 62.0794 35.9346 62.1832C35.9139 62.1832 35.8932 62.1832 35.8932 62.1832C35.8517 62.1832 35.7894 62.2039 35.6857 62.2247C35.4575 62.2869 35.25 62.3491 35.0425 62.4529C35.001 62.4736 35.001 62.5151 35.0218 62.5566L35.0633 62.6396C35.0633 62.6604 35.084 62.6396 35.084 62.6604C35.1048 62.6604 35.1255 62.6811 35.1048 62.6811C35.1048 62.6811 35.333 62.5981 35.3745 62.5566C35.416 62.5359 35.6649 62.4321 35.9139 62.3906C36.0384 62.3699 36.6193 62.2454 37.2002 62.4944C37.304 62.5359 37.47 62.6189 37.47 62.5981Z" fill="#202020"/>
<path d="M5.60182 28.6759C7.27475 28.6759 8.63094 27.3197 8.63094 25.6468C8.63094 23.9739 7.27475 22.6177 5.60182 22.6177C3.92888 22.6177 2.57269 23.9739 2.57269 25.6468C2.57269 27.3197 3.92888 28.6759 5.60182 28.6759Z" fill="#202020"/>
<path fill-rule="evenodd" clip-rule="evenodd" d="M23.8181 19.6923C23.9633 20.9371 23.8388 22.2235 23.4861 23.4268C23.1334 24.6302 22.5525 25.7713 21.7433 26.7464C20.9549 27.7215 19.9798 28.5514 18.8594 29.1531C17.7598 29.7548 16.5357 30.149 15.2909 30.2735C10.021 30.8336 5.29061 27.0161 4.73043 21.7255C4.5852 20.4807 4.70968 19.1943 5.06239 17.991C5.4151 16.7876 5.99602 15.6465 6.80517 14.6714C7.59358 13.6963 8.5687 12.8664 9.68906 12.2647C10.7887 11.663 12.0128 11.2688 13.2576 11.1443C18.5067 10.5634 23.2371 14.4017 23.8181 19.6923Z" fill="#F4C1B8"/>
<path fill-rule="evenodd" clip-rule="evenodd" d="M23.8181 19.6921C23.7143 18.717 23.4654 17.7419 23.0712 16.829C22.6147 15.7709 21.9508 14.8165 21.1624 13.9866C21.7433 15.6049 22.0753 17.3062 22.1583 19.0282C22.2205 20.356 22.3035 22.244 21.5566 24.2773C20.3947 27.5139 17.8221 29.2982 16.6187 30.0036C17.3241 29.8376 20.3118 29.0077 22.3035 25.9993C24.1293 23.2607 23.9011 20.4598 23.8181 19.6921Z" fill="#E2AA9F"/>
<path fill-rule="evenodd" clip-rule="evenodd" d="M11.8053 11.3519C12.2618 11.2274 12.7182 11.1444 13.1954 11.1029C18.4653 10.5427 23.3617 14.3602 23.9218 19.6301C23.9633 20.045 23.9841 20.4807 23.9841 20.8957V20.9164V20.9372L23.9633 20.9579H23.9426C23.0504 21.1032 17.9051 21.0202 14.6685 18.406C14.544 18.3022 14.4195 18.24 14.2535 18.1985C14.0876 18.157 13.9423 18.1363 13.7971 18.157C13.6519 18.1778 13.5066 18.2193 13.3614 18.3022C13.2369 18.3852 13.1124 18.489 13.0087 18.5927C11.9506 19.9828 9.60612 22.3272 5.20767 23.3439C5.16617 23.3439 5.12468 23.3646 5.08318 23.3646C5.06243 23.3439 5.04169 23.3439 5.00019 23.3231C4.85496 22.7837 4.75122 22.2443 4.68898 21.6841C4.60599 20.6882 4.64749 19.6716 4.83421 18.6757C5.43589 15.7296 8.07081 12.3477 11.8053 11.3519Z" fill="#202020"/>
<path fill-rule="evenodd" clip-rule="evenodd" d="M13.4343 25.045C13.4538 25.2395 13.4148 25.4536 13.3174 25.6286C13.22 25.8037 13.0836 25.9594 12.8888 26.0567C12.7135 26.1539 12.4992 26.1928 12.3044 26.1734C12.1096 26.1539 11.9148 26.0761 11.7394 25.9399C11.5836 25.8037 11.4667 25.6481 11.4083 25.4536C11.3498 25.259 11.3498 25.045 11.4083 24.8504C11.4667 24.6559 11.5836 24.4808 11.7394 24.3446C11.8953 24.2084 12.0901 24.1306 12.2849 24.1111C12.4213 24.0917 12.5576 24.1111 12.694 24.1501C12.8304 24.189 12.9473 24.2473 13.0447 24.3446C13.1421 24.4224 13.2395 24.5392 13.2979 24.6559C13.3759 24.7921 13.4148 24.9283 13.4343 25.045Z" fill="white"/>
<path fill-rule="evenodd" clip-rule="evenodd" d="M18.6679 24.555C18.6873 24.7496 18.6484 24.9636 18.551 25.1387C18.4536 25.3138 18.3172 25.4694 18.1224 25.5667C17.9471 25.6639 17.7328 25.7029 17.538 25.6834C17.3431 25.6639 17.1483 25.5861 16.973 25.4499C16.8172 25.3138 16.7003 25.1581 16.6418 24.9636C16.5834 24.769 16.5834 24.555 16.6418 24.3605C16.7003 24.1659 16.8172 23.9908 16.973 23.8546C17.1289 23.7184 17.3237 23.6406 17.5185 23.6212C17.6548 23.6017 17.7912 23.6212 17.9276 23.6601C18.0639 23.699 18.1808 23.7573 18.2782 23.8546C18.3756 23.9324 18.4731 24.0492 18.5315 24.1659C18.6094 24.3021 18.6484 24.4383 18.6679 24.555Z" fill="white"/>
<path fill-rule="evenodd" clip-rule="evenodd" d="M16.0585 26.9746H16.0793C16.0793 26.9746 16.1 26.9746 16.1 26.9954L16.1208 27.0161V27.0369C16.1623 27.3481 16.0585 27.6593 15.8718 27.8875C15.6851 28.1365 15.3946 28.2817 15.0834 28.3232C14.7722 28.3647 14.461 28.2609 14.2328 28.0742C13.9838 27.8875 13.8386 27.597 13.7971 27.2858C13.7971 27.2651 13.7971 27.2443 13.7971 27.2443C13.7971 27.2236 13.8178 27.2236 13.8386 27.2236L16.0585 26.9746Z" fill="#B7918A"/>
<path fill-rule="evenodd" clip-rule="evenodd" d="M13.2043 25.0903C13.2235 25.2056 13.2043 25.3016 13.1852 25.4169C13.1468 25.513 13.1085 25.6283 13.0318 25.7052C12.9552 25.782 12.8785 25.8589 12.7827 25.9166C12.6869 25.9742 12.5719 25.9934 12.476 26.0126C12.2652 26.0319 12.0352 25.9742 11.8627 25.8397C11.6902 25.7052 11.5752 25.4938 11.5561 25.2824C11.5369 25.071 11.5944 24.8405 11.7286 24.6675C11.8627 24.4946 12.0735 24.3793 12.2844 24.36C12.4952 24.3408 12.7252 24.3985 12.8977 24.533C13.0702 24.6675 13.1852 24.8597 13.2043 25.0903Z" fill="#202020"/>
<path fill-rule="evenodd" clip-rule="evenodd" d="M18.4379 24.6005C18.4571 24.7158 18.4379 24.8119 18.4187 24.9272C18.3804 25.0233 18.3421 25.1386 18.2654 25.2154C18.1887 25.2923 18.1121 25.3692 18.0162 25.4268C17.9204 25.4845 17.8054 25.5037 17.7096 25.5229C17.4988 25.5421 17.2688 25.4845 17.0963 25.3499C16.9238 25.2154 16.8088 25.0041 16.7896 24.7927C16.7705 24.5813 16.828 24.3507 16.9621 24.1778C17.0963 24.0048 17.3071 23.8895 17.5179 23.8703C17.7288 23.8511 17.9587 23.9087 18.1312 24.0432C18.3037 24.1778 18.4187 24.3699 18.4379 24.6005Z" fill="#202020"/>
<path d="M16.764 22.0989L18.0503 21.9537C18.2163 21.9329 18.3615 22.0574 18.3615 22.2027C18.3823 22.3686 18.2578 22.5139 18.1125 22.5139L16.8262 22.6591C16.6602 22.6798 16.515 22.5554 16.515 22.4101C16.4735 22.2649 16.598 22.1197 16.764 22.0989Z" fill="#202020"/>
<path d="M10.8095 23.0327C10.7887 22.8667 10.9132 22.7215 11.0584 22.7215L12.3448 22.5762C12.5107 22.5555 12.656 22.68 12.656 22.8252C12.6767 22.9912 12.5522 23.1364 12.407 23.1364L11.1207 23.2817C10.9547 23.3232 10.8302 23.1987 10.8095 23.0327Z" fill="#202020"/>
<path d="M6.05827 31.9955C7.41037 31.9955 8.50647 30.8994 8.50647 29.5473C8.50647 28.1952 7.41037 27.0991 6.05827 27.0991C4.70617 27.0991 3.61008 28.1952 3.61008 29.5473C3.61008 30.8994 4.70617 31.9955 6.05827 31.9955Z" fill="#202020"/>
<path d="M8.05005 35.3151C9.40215 35.3151 10.4982 34.219 10.4982 32.8669C10.4982 31.5148 9.40215 30.4187 8.05005 30.4187C6.69795 30.4187 5.60185 31.5148 5.60185 32.8669C5.60185 34.219 6.69795 35.3151 8.05005 35.3151Z" fill="#202020"/>
<path d="M10.3945 38.8629C11.7466 38.8629 12.8427 37.7668 12.8427 36.4147C12.8427 35.0626 11.7466 33.9666 10.3945 33.9666C9.0424 33.9666 7.9463 35.0626 7.9463 36.4147C7.9463 37.7668 9.0424 38.8629 10.3945 38.8629Z" fill="#202020"/>
<path d="M14.3573 39.5268C12.6352 40.4189 13.8801 39.7757 12.49 40.4812C11.2867 41.1036 12.7597 40.3567 10.0003 41.7675C9.14968 40.1077 9.44015 38.2612 10.6435 37.6388C11.8468 37.0371 13.5066 37.867 14.3573 39.5268Z" fill="#202020"/>
<path d="M9.75133 38.365L11.7223 37.3691C11.9298 37.2654 12.1788 37.3484 12.2825 37.5558C12.3863 37.7633 12.3033 38.0123 12.0958 38.116L10.1248 39.1119C9.91731 39.2156 9.66834 39.1327 9.5646 38.9252C9.46087 38.7177 9.54386 38.4687 9.75133 38.365Z" fill="#7B10D9"/>
</svg>
